Election Outcomes
…
merged_data <- left_join(gdp_data, funding_data, by = "state")

Warning in left_join(gdp_data, funding_data, by = "state"): Detected an unexpected many-to-many relationship between `x` and `y`.
ℹ Row 2 of `x` matches multiple rows in `y`.
ℹ Row 13 of `y` matches multiple rows in `x`.
ℹ If a many-to-many relationship is expected, set `relationship =
  "many-to-many"` to silence this warning.

merged_data <- merged_data |>
  select(state, total_funds, gdp_range, year2016)

head(merged_data, 30)

# A tibble: 30 × 4
   state         total_funds gdp_range year2016
   <chr>         <chr>       <chr>        <dbl>
 1 United States <NA>        40k-70k      50660
 2 AL            1187424.52  0-40k        37158
 3 AL            450025.21   0-40k        37158
 4 AL            1079877.00  0-40k        37158
 5 AL            1322906.88  0-40k        37158
 6 AK            1053372.03  70k+         63304
 7 AZ            678182.99   0-40k        38940
 8 AZ            499491.84   0-40k        38940
 9 AZ            603887.63   0-40k        38940
10 AZ            6632898.31  0-40k        38940
# ℹ 20 more rows
…
by_state <- merged_data |> 
  group_by(state) |> 
  summarise(
    total_funds_sum = sum(as.numeric(total_funds), na.rm = TRUE),
    range = get_mode(gdp_range),
    average_funds_per_range = mean(as.numeric(total_funds), na.rm = TRUE),
    state_gdp = get_mode(year2016),
    .groups = "drop"
  )
head(by_state, 30)

# A tibble: 30 × 5
   state total_funds_sum range   average_funds_per_range state_gdp
   <chr>           <dbl> <chr>                     <dbl>     <dbl>
 1 AK           1053372. 70k+                   1053372.     63304
 2 AL           4040234. 0-40k                  1010058.     37158
 3 AR           2053082. 0-40k                  2053082.     36502
 4 AZ          14644764. 0-40k                  2092109.     38940
 5 CA          80097460. 40k-70k                1601949.     58974
 6 CO          10480221. 40k-70k                1497174.     52863
 7 CT           7522838. 70k+                   1504568.     62745
 8 DC                 0  70k+                       NaN     159141
 9 DE            908739. 70k+                    908739.     63578
10 FL          40188480. 0-40k                  1545711.     39608
# ℹ 20 more rows
…
